{"records": [
    {
        "jsonSchemaLocation": "/SampleWebhook.module/Service Descriptors/samplewebhook.module.Process-samplewebhook.json",
        "conversionType": "linked",
        "xsdSchemaTargetNamespace": "http://tns.tibco.com/bw/json/1519059077523"
    },
    {
        "jsonSchemaLocation": "/SampleWebhook.module/Service Descriptors/samplewebhook.module.GetApplicationInfo-GetAppInfo.json",
        "conversionType": "linked",
        "xsdSchemaTargetNamespace": "http://tns.tibco.com/bw/json/1519059077523"
    },
    {
        "jsonSchemaLocation": "/SampleWebhook.module/Service Descriptors/samplewebhook.module.BwToTelegram-bwtotelegram.json",
        "conversionType": "linked",
        "xsdSchemaTargetNamespace": "http://www.example.org/BwToTelegramService"
    }
]}