{
  "swagger" : "2.0",
  "info" : {
    "version" : "1.0",
    "title" : "Summary about the new REST service.",
    "description" : "Summary about the new REST service."
  },
  "host" : "localhost:8080",
  "basePath" : "/",
  "schemes" : [ "http" ],
  "paths" : {
    "/samplewebhook" : {
      "post" : {
        "description" : "",
        "operationId" : "post-samplewebhook",
        "consumes" : [ "application/json" ],
        "produces" : [ "application/json" ],
        "parameters" : [ {
          "name" : "body",
          "in" : "body",
          "description" : "",
          "schema" : {
            "$ref" : "#/definitions/webHookRequestElement"
          },
          "required" : true
        } ],
        "responses" : {
          "200" : {
            "description" : "a string to be returned",
            "schema" : {
              "type" : "string"
            }
          }
        }
      }
    }
  },
  "definitions" : {
    "webHookRequestElement" : {
      "type" : "object",
      "properties" : {
        "update_id" : {
          "type" : "integer"
        },
        "message" : {
          "$ref" : "#/definitions/message"
        }
      }
    },
    "entities" : {
      "type" : "object",
      "properties" : {
        "offset" : {
          "type" : "integer"
        },
        "length" : {
          "type" : "integer"
        },
        "type" : {
          "type" : "string"
        }
      }
    },
    "chat" : {
      "type" : "object",
      "properties" : {
        "id" : {
          "type" : "integer"
        },
        "first_name" : {
          "type" : "string"
        },
        "last_name" : {
          "type" : "string"
        },
        "username" : {
          "type" : "string"
        },
        "type" : {
          "type" : "string"
        }
      }
    },
    "from" : {
      "type" : "object",
      "properties" : {
        "id" : {
          "type" : "integer"
        },
        "is_bot" : {
          "type" : "boolean"
        },
        "first_name" : {
          "type" : "string"
        },
        "last_name" : {
          "type" : "string"
        },
        "username" : {
          "type" : "string"
        },
        "language_code" : {
          "type" : "string"
        }
      }
    },
    "message" : {
      "type" : "object",
      "properties" : {
        "message_id" : {
          "type" : "integer"
        },
        "from" : {
          "$ref" : "#/definitions/from"
        },
        "chat" : {
          "$ref" : "#/definitions/chat"
        },
        "date" : {
          "type" : "integer"
        },
        "text" : {
          "type" : "string"
        },
        "entities" : {
          "type" : "array",
          "items" : {
            "$ref" : "#/definitions/entities",
            "uniqueItems" : false
          }
        }
      }
    }
  }
}